<svg xmlns="http://www.w3.org/2000/svg" xmlns:xlink="http://www.w3.org/1999/xlink" width="43.957" height="44.033" viewBox="0 0 43.957 44.033">
  <defs>
    <clipPath id="clip-path">
      <rect id="Rectangle_1697" data-name="Rectangle 1697" width="43.957" height="44.033" fill="#eb2b90"/>
    </clipPath>
  </defs>
  <g id="Group_3148" data-name="Group 3148" clip-path="url(#clip-path)">
    <path id="Path_1329" data-name="Path 1329" d="M12.558,195.1c1.185-.891,2.292-1.7,3.369-2.544a2.693,2.693,0,0,1,1.8-.613c1.928.033,3.858-.009,5.786.02a4.737,4.737,0,0,1,4.677,4.082,13.192,13.192,0,0,1-.065,2.2h.426c3.972,0,7.944-.014,11.916.006a3.467,3.467,0,0,1,3.026,5.187,3.722,3.722,0,0,1-1.825,1.569q-4.567,2.022-9.129,4.055a16.613,16.613,0,0,1-4.454,1.6,14.915,14.915,0,0,1-1.9.157q-4.34.025-8.68-.005a2.884,2.884,0,0,1-1.167-.282c-1.251-.59-2.48-1.226-3.786-1.879,0,.263.008.453,0,.642a1.541,1.541,0,0,1-1.5,1.522q-4.781.026-9.562,0A1.547,1.547,0,0,1,0,209.137Q0,203.905,0,198.674q0-2.481,0-4.962a1.585,1.585,0,0,1,1.764-1.756q4.512,0,9.023,0a1.6,1.6,0,0,1,1.769,1.754c0,.425,0,.85,0,1.39M22.3,207.68c1.242,0,2.484-.012,3.726,0a8.486,8.486,0,0,0,3.611-.762q5.14-2.3,10.289-4.578a4.582,4.582,0,0,0,.661-.316c.1-.068.226-.255.2-.339a.607.607,0,0,0-.333-.285,1.066,1.066,0,0,0-.388-.013H26.919c-1.111,0-2.223.006-3.334,0a1.571,1.571,0,1,1-.052-3.142,1.584,1.584,0,0,0,1.578-1.448,1.567,1.567,0,0,0-1.32-1.639,2.632,2.632,0,0,0-.582-.055c-1.683,0-3.367-.011-5.05.008a1.211,1.211,0,0,0-.664.223q-2.328,1.718-4.624,3.48a.866.866,0,0,0-.3.593c-.023,1.784-.006,3.569-.021,5.354a.531.531,0,0,0,.353.557c1.48.726,2.948,1.475,4.429,2.2a1.676,1.676,0,0,0,.7.156c1.422.014,2.844.007,4.266.007m-19.123-.039H9.394V195.123H3.174Z" transform="translate(0 -166.797)" fill="#eb2b90"/>
    <path id="Path_1330" data-name="Path 1330" d="M169.167,22.011a1.575,1.575,0,0,1-1.15-2.493,2.861,2.861,0,0,1,.33-.362Q177.59,9.895,186.83.632a1.7,1.7,0,0,1,1.573-.6,1.571,1.571,0,0,1,.962,2.489,3.167,3.167,0,0,1-.3.325q-9.26,9.278-18.52,18.557a1.794,1.794,0,0,1-1.38.612" transform="translate(-145.733 -0.001)" fill="#eb2b90"/>
    <path id="Path_1331" data-name="Path 1331" d="M172.453.007a4.716,4.716,0,1,1-4.7,4.726,4.723,4.723,0,0,1,4.7-4.726m1.578,4.711a1.568,1.568,0,1,0-1.551,1.576,1.583,1.583,0,0,0,1.551-1.576" transform="translate(-145.778 -0.006)" fill="#eb2b90"/>
    <path id="Path_1332" data-name="Path 1332" d="M273.021,100.766a4.708,4.708,0,1,1-4.682-4.74,4.726,4.726,0,0,1,4.682,4.74m-3.14-.028a1.568,1.568,0,1,0-1.552,1.574,1.583,1.583,0,0,0,1.552-1.574" transform="translate(-229.07 -83.445)" fill="#eb2b90"/>
  </g>
</svg>
